{
  "page": 1,
  "total_results": 19813,
  "total_pages": 991,
  "results": [
    {
      "vote_count": 5571,
      "id": 299534,
      "video": false,
      "vote_average": 8.5,
      "title": "Avengers: Endgame",
      "popularity": 368.982,
      "poster_path": "/or06FN3Dka5tukK1e9sl16pB3iy.jpg",
      "original_language": "en",
      "original_title": "Avengers: Endgame",
      "genre_ids": [
        12,
        878,
        28
      ],
      "backdrop_path": "/7RyHsO4yDXtBv1zUU3mTpHeQ0d5.jpg",
      "adult": false,
      "overview": "After the devastating events of Avengers: Infinity War, the universe is in ruins due to the efforts of the Mad Titan, Thanos. With the help of remaining allies, the Avengers must assemble once more in order to undo Thanos' actions and restore order to the universe once and for all, no matter what consequences may be in store.",
      "release_date": "2019-04-24"
    },
    {
      "vote_count": 182,
      "id": 458156,
      "video": false,
      "vote_average": 7.6,
      "title": "John Wick: Chapter 3 – Parabellum",
      "popularity": 331.398,
      "poster_path": "/ziEuG1essDuWuC5lpWUaw1uXY2O.jpg",
      "original_language": "en",
      "original_title": "John Wick: Chapter 3 – Parabellum",
      "genre_ids": [
        80,
        28,
        53
      ],
      "backdrop_path": "/5Wo36oWzdblY5Fgvbws0L43trRq.jpg",
      "adult": false,
      "overview": "In this third installment of the adrenaline-fueled action franchise, super-assassin John Wick returns with a $14 million price tag on his head and an army of bounty-hunting killers on his trail. After killing a member of the shadowy international assassin’s guild, the High Table, John Wick is excommunicado, but the world’s most ruthless hit men and women await his every turn.",
      "release_date": "2019-05-15"
    },
    {
      "vote_count": 641,
      "id": 447404,
      "video": false,
      "vote_average": 7.1,
      "title": "Pokémon Detective Pikachu",
      "popularity": 295.964,
      "poster_path": "/wgQ7APnFpf1TuviKHXeEe3KnsTV.jpg",
      "original_language": "en",
      "original_title": "Pokémon Detective Pikachu",
      "genre_ids": [
        9648,
        10751,
        35,
        878,
        28,
        12,
        16
      ],
      "backdrop_path": "/nDP33LmQwNsnPv29GQazz59HjJI.jpg",
      "adult": false,
      "overview": "In a world where people collect pocket-size monsters (Pokémon) to do battle, a boy comes across an intelligent monster who seeks to be a detective.",
      "release_date": "2019-05-03"
    },
    {
      "vote_count": 13,
      "id": 280960,
      "video": false,
      "vote_average": 5.2,
      "title": "Catarina and the others",
      "popularity": 182.687,
      "poster_path": "/kZMCbp0o46Tsg43omSHNHJKNTx9.jpg",
      "original_language": "pt",
      "original_title": "Catarina e os Outros",
      "genre_ids": [
        18,
        9648
      ],
      "backdrop_path": "/9nDiMhvL3FtaWMsvvvzQIuq276X.jpg",
      "adult": false,
      "overview": "Outside, the first sun rays break the dawn.  Sixteen years old Catarina can't fall asleep.  Inconsequently, in the big city adults are moved by desire...  Catarina found she is HIV positive. She wants to drag everyone else along.",
      "release_date": "2011-03-01"
    },
    {
      "vote_count": 16,
      "id": 543103,
      "video": false,
      "vote_average": 5.3,
      "title": "Kamen Rider Heisei Generations FOREVER",
      "popularity": 173.925,
      "poster_path": "/6sOFQDlkY6El1B2P5gklzJfVdsT.jpg",
      "original_language": "ja",
      "original_title": "仮面ライダー平成ジェネレーションズFOREVER",
      "genre_ids": [
        28,
        12,
        878
      ],
      "backdrop_path": "/uufTqD2CSn1NqL3cXEl4Vp3bCav.jpg",
      "adult": false,
      "overview": "In the world of Sougo Tokiwa and Sento Kiryu, their \"companions\" are losing their memories one after the other as they're replaced by other people. The Super Time Jacker, Tid , appears before them. He orders his powerful underlings, Another Double and Another Den-O, to pursue a young boy called Shingo. While fighting to protect Shingo, Sougo meets Ataru, a young man who loves Riders, but Ataru says that Kamen Riders aren't real. What is the meaning of those words? While the mystery deepens, the true enemy that Sougo and Sento must defeat appears in the Kuriogatake mountain...",
      "release_date": "2018-12-22"
    },
    {
      "vote_count": 4895,
      "id": 299537,
      "video": false,
      "vote_average": 7.1,
      "title": "Captain Marvel",
      "popularity": 172.333,
      "poster_path": "/AtsgWhDnHTq68L0lLsUrCnM7TjG.jpg",
      "original_language": "en",
      "original_title": "Captain Marvel",
      "genre_ids": [
        28,
        12,
        878
      ],
      "backdrop_path": "/w2PMyoyLU22YvrGK3smVM9fW1jj.jpg",
      "adult": false,
      "overview": "The story follows Carol Danvers as she becomes one of the universe’s most powerful heroes when Earth is caught in the middle of a galactic war between two alien races. Set in the 1990s, Captain Marvel is an all-new adventure from a previously unseen period in the history of the Marvel Cinematic Universe.",
      "release_date": "2019-03-06"
    },
    {
      "vote_count": 23,
      "id": 576393,
      "video": false,
      "vote_average": 5.7,
      "title": "Fall in Love at First Kiss",
      "popularity": 156.227,
      "poster_path": "/wtaSH8MfJSCEIrrEX9SQuHdU5sl.jpg",
      "original_language": "zh",
      "original_title": "一吻定情",
      "genre_ids": [
        10749,
        35
      ],
      "backdrop_path": "/yY7kr7Rgvo8W0Kr3U0bMV8Zq1qM.jpg",
      "adult": false,
      "overview": "After an earthquake destroys Xiang Qin's house, she and her father move in with the family of her father's college buddy. To her surprise, her new kind and amicable aunt and uncle are the parents of her cold and distant schoolmate, Jiang Zhi Shu, a genius with an IQ of 200 whom not too long ago rejected her when she confessed her feelings for him. Will the close proximity give her a second chance to win Zhi Shu's heart? Or will her love for him end under his cold words?",
      "release_date": "2019-02-14"
    },
    {
      "vote_count": 1603,
      "id": 287947,
      "video": false,
      "vote_average": 7.1,
      "title": "Shazam!",
      "popularity": 151.588,
      "poster_path": "/xnopI5Xtky18MPhK40cZAGAOVeV.jpg",
      "original_language": "en",
      "original_title": "Shazam!",
      "genre_ids": [
        28,
        12,
        35,
        14
      ],
      "backdrop_path": "/bi4jh0Kt0uuZGsGJoUUfqmbrjQg.jpg",
      "adult": false,
      "overview": "A boy is given the ability to become an adult superhero in times of need with a single magic word.",
      "release_date": "2019-03-23"
    },
    {
      "vote_count": 67,
      "id": 449562,
      "video": false,
      "vote_average": 6.1,
      "title": "The Hustle",
      "popularity": 150.27,
      "poster_path": "/qibqW5Dnvqp4hcEnoTARbQgxwJy.jpg",
      "original_language": "en",
      "original_title": "The Hustle",
      "genre_ids": [
        35
      ],
      "backdrop_path": "/s6awXOxTKYQLSktiIJfI3969dZH.jpg",
      "adult": false,
      "overview": "Two female scam artists, one low rent and the other high class, compete to swindle a naïve tech prodigy out of his fortune. A remake of the 1988 comedy \"Dirty Rotten Scoundrels.\"",
      "release_date": "2019-05-09"
    },
    {
      "vote_count": 14,
      "id": 531309,
      "video": false,
      "vote_average": 5.1,
      "title": "Brightburn",
      "popularity": 135.881,
      "poster_path": "/roslEbKdY0WSgYaB5KXvPKY0bXS.jpg",
      "original_language": "en",
      "original_title": "Brightburn",
      "genre_ids": [
        27,
        878,
        18,
        53
      ],
      "backdrop_path": "/uHEI6v8ApQusjbaRZ8o7WcLYeWb.jpg",
      "adult": false,
      "overview": "A child from another world crash-lands on Earth, but instead of becoming a hero to mankind, he is an evil little boy.",
      "release_date": "2019-05-10"
    },
    {
      "vote_count": 9678,
      "id": 245891,
      "video": false,
      "vote_average": 7.2,
      "title": "John Wick",
      "popularity": 129.89,
      "poster_path": "/b9uYMMbm87IBFOq59pppvkkkgNg.jpg",
      "original_language": "en",
      "original_title": "John Wick",
      "genre_ids": [
        28,
        53
      ],
      "backdrop_path": "/mFb0ygcue4ITixDkdr7wm1Tdarx.jpg",
      "adult": false,
      "overview": "Ex-hitman John Wick comes out of retirement to track down the gangsters that took everything from him.",
      "release_date": "2014-10-22"
    },
    {
      "vote_count": 1809,
      "id": 166428,
      "video": false,
      "vote_average": 7.6,
      "title": "How to Train Your Dragon: The Hidden World",
      "popularity": 125.252,
      "poster_path": "/xvx4Yhf0DVH8G4LzNISpMfFBDy2.jpg",
      "original_language": "en",
      "original_title": "How to Train Your Dragon: The Hidden World",
      "genre_ids": [
        16,
        10751,
        12
      ],
      "backdrop_path": "/lFwykSz3Ykj1Q3JXJURnGUTNf1o.jpg",
      "adult": false,
      "overview": "As Hiccup fulfills his dream of creating a peaceful dragon utopia, Toothless’ discovery of an untamed, elusive mate draws the Night Fury away. When danger mounts at home and Hiccup’s reign as village chief is tested, both dragon and rider must make impossible decisions to save their kind.",
      "release_date": "2019-01-03"
    },
    {
      "vote_count": 534,
      "id": 438650,
      "video": false,
      "vote_average": 5.3,
      "title": "Cold Pursuit",
      "popularity": 124.491,
      "poster_path": "/otK0H9H1w3JVGJjad5Kzx3Z9kt2.jpg",
      "original_language": "en",
      "original_title": "Cold Pursuit",
      "genre_ids": [
        28,
        18,
        53,
        80
      ],
      "backdrop_path": "/aiM3XxYE2JvW1vJ4AC6cI1RjAoT.jpg",
      "adult": false,
      "overview": "Nels Coxman, a snowplow driver recently awarded the title of citizen of the year, triggers a series of violence and misunderstandings between two rival gangs after he starts avenging his son's death.",
      "release_date": "2019-02-07"
    },
    {
      "vote_count": 388,
      "id": 456740,
      "video": false,
      "vote_average": 5,
      "title": "Hellboy",
      "popularity": 118.947,
      "poster_path": "/bk8LyaMqUtaQ9hUShuvFznQYQKR.jpg",
      "original_language": "en",
      "original_title": "Hellboy",
      "genre_ids": [
        28,
        12,
        14
      ],
      "backdrop_path": "/5BkSkNtfrnTuKOtTaZhl8avn4wU.jpg",
      "adult": false,
      "overview": "Hellboy comes to England, where he must defeat Nimue, Merlin's consort and the Blood Queen. But their battle will bring about the end of the world, a fate he desperately tries to turn away.",
      "release_date": "2019-04-10"
    },
    {
      "vote_count": 2868,
      "id": 450465,
      "video": false,
      "vote_average": 6.5,
      "title": "Glass",
      "popularity": 115.058,
      "poster_path": "/svIDTNUoajS8dLEo7EosxvyAsgJ.jpg",
      "original_language": "en",
      "original_title": "Glass",
      "genre_ids": [
        53,
        9648,
        18
      ],
      "backdrop_path": "/lvjscO8wmpEbIfOEZi92Je8Ktlg.jpg",
      "adult": false,
      "overview": "In a series of escalating encounters, security guard David Dunn uses his supernatural abilities to track Kevin Wendell Crumb, a disturbed man who has twenty-four personalities. Meanwhile, the shadowy presence of Elijah Price emerges as an orchestrator who holds secrets critical to both men.",
      "release_date": "2019-01-16"
    },
    {
      "vote_count": 531,
      "id": 157433,
      "video": false,
      "vote_average": 5.9,
      "title": "Pet Sematary",
      "popularity": 113.053,
      "poster_path": "/7SPhr7Qj39vbnfF9O2qHRYaKHAL.jpg",
      "original_language": "en",
      "original_title": "Pet Sematary",
      "genre_ids": [
        53,
        9648,
        27
      ],
      "backdrop_path": "/n2aX63BmW7zIKgKJ58e6rKlSsdi.jpg",
      "adult": false,
      "overview": "Louis Creed, his wife Rachel and their two children Gage and Ellie move to a rural home where they are welcomed and enlightened about the eerie 'Pet Sematary' located nearby. After the tragedy of their cat being killed by a truck, Louis resorts to burying it in the mysterious pet cemetery, which is definitely not as it seems, as it proves to the Creeds that sometimes dead is better.",
      "release_date": "2019-04-04"
    },
    {
      "vote_count": 917,
      "id": 537915,
      "video": false,
      "vote_average": 6,
      "title": "After",
      "popularity": 107.379,
      "poster_path": "/u3B2YKUjWABcxXZ6Nm9h10hLUbh.jpg",
      "original_language": "en",
      "original_title": "After",
      "genre_ids": [
        18,
        10749
      ],
      "backdrop_path": "/997ToEZvF2Obp9zNZbY5ELVnmrW.jpg",
      "adult": false,
      "overview": "A young woman falls for a guy with a dark secret and the two embark on a rocky relationship.",
      "release_date": "2019-04-11"
    },
    {
      "vote_count": 6,
      "id": 566555,
      "video": false,
      "vote_average": 5.6,
      "title": "Detective Conan: The Fist of Blue Sapphire",
      "popularity": 95.21,
      "poster_path": "/1GyvpwvgswOrHvxjnw2FBLNkTyo.jpg",
      "original_language": "ja",
      "original_title": "名探偵コナン 紺青の拳（フィスト）",
      "genre_ids": [
        16,
        28,
        18,
        9648,
        35
      ],
      "backdrop_path": "/wf6VDSi4aFCZfuD8sX8JAKLfJ5m.jpg",
      "adult": false,
      "overview": "23rd Detective Conan Movie.",
      "release_date": "2019-04-12"
    },
    {
      "vote_count": 7412,
      "id": 920,
      "video": false,
      "vote_average": 6.7,
      "title": "Cars",
      "popularity": 93.558,
      "poster_path": "/5damnMcRFKSjhCirgX3CMa88MBj.jpg",
      "original_language": "en",
      "original_title": "Cars",
      "genre_ids": [
        16,
        12,
        35,
        10751
      ],
      "backdrop_path": "/a1MlbLBk5Sy6YvMbSuKfwGlDVlb.jpg",
      "adult": false,
      "overview": "Lightning McQueen, a hotshot rookie race car driven to succeed, discovers that life is about the journey, not the finish line, when he finds himself unexpectedly detoured in the sleepy Route 66 town of Radiator Springs. On route across the country to the big Piston Cup Championship in California to compete against two seasoned pros, McQueen gets to know the town's offbeat characters.",
      "release_date": "2006-06-08"
    },
    {
      "vote_count": 1441,
      "id": 504172,
      "video": false,
      "vote_average": 6.5,
      "title": "The Mule",
      "popularity": 87.107,
      "poster_path": "/oeZh7yEz3PMnZLgBPhrafFHRbVz.jpg",
      "original_language": "en",
      "original_title": "The Mule",
      "genre_ids": [
        80,
        18,
        53
      ],
      "backdrop_path": "/bTeRgkAavyw1eCtSkaww18wLYNP.jpg",
      "adult": false,
      "overview": "Earl Stone, a man in his 80s, is broke, alone, and facing foreclosure of his business when he is offered a job that simply requires him to drive. Easy enough, but, unbeknownst to Earl, he’s just signed on as a drug courier for a Mexican cartel. He does so well that his cargo increases exponentially, and Earl hit the radar of hard-charging DEA agent Colin Bates.",
      "release_date": "2018-12-14"
    }
  ]
}